E: 2900.984166 0003 002f 0
E: 2900.984166 0003 0030 180
E: 2900.984166 0003 0031 0
E: 2900.984166 0003 0032 0
E: 2900.984166 0003 0033 0
E: 2900.984166 0003 0034 0
E: 2900.984166 0003 0035 1009
E: 2900.984166 0003 0036 515
E: 2900.984166 0003 0037 0
E: 2900.984166 0003 0038 0
E: 2900.984166 0003 0039 1040
E: 2900.984166 0003 003a 45
E: 2900.984166 0003 003b 0
E: 2900.984166 0003 002f 1
E: 2900.984166 0003 0039 -1
E: 2900.984166 0003 002f 2
E: 2900.984166 0003 0039 -1
E: 2900.984166 0003 002f 3
E: 2900.984166 0003 0039 -1
E: 2900.984166 0003 002f 4
E: 2900.984166 0003 0039 -1
E: 2900.984166 0003 002f 5
E: 2900.984166 0003 0039 -1
E: 2900.984166 0003 002f 6
E: 2900.984166 0003 0039 -1
E: 2900.984166 0003 002f 7
E: 2900.984166 0003 0039 -1
E: 2900.984166 0003 002f 8
E: 2900.984166 0003 0039 -1
E: 2900.984166 0003 002f 9
E: 2900.984166 0003 0039 -1
E: 2900.984166 0003 002f 0
E: 2900.984166 0001 0145 1
E: 2900.984166 0001 014a 1
E: 2900.984166 0000 0000 0
E: 2900.989567 0003 0036 514
E: 2900.989568 0003 003a 43
E: 2900.989570 0003 0001 514
E: 2900.989571 0003 0018 43
E: 2900.989571 0000 0000 0
E: 2901.000745 0003 003a 45
E: 2901.000750 0003 0018 45
E: 2901.000750 0000 0000 0
E: 2901.006146 0003 003a 42
E: 2901.006149 0003 0018 42
E: 2901.006150 0000 0000 0
E: 2901.011812 0003 0036 513
E: 2901.011817 0003 0001 513
E: 2901.011818 0000 0000 0
E: 2901.022730 0003 0036 512
E: 2901.022732 0003 0001 512
E: 2901.022733 0000 0000 0
E: 2901.028328 0003 0036 510
E: 2901.028332 0003 0001 510
E: 2901.028333 0000 0000 0
E: 2901.033860 0003 0036 507
E: 2901.033861 0003 003a 43
E: 2901.033862 0003 0030 220
E: 2901.033864 0003 0001 507
E: 2901.033865 0003 0018 43
E: 2901.033865 0000 0000 0
E: 2901.039577 0003 0035 1010
E: 2901.039579 0003 0036 501
E: 2901.039579 0003 003a 41
E: 2901.039580 0003 0030 254
E: 2901.039583 0003 0000 1010
E: 2901.039583 0003 0001 501
E: 2901.039584 0003 0018 41
E: 2901.039585 0000 0000 0
E: 2901.045066 0003 0035 1011
E: 2901.045067 0003 0036 492
E: 2901.045068 0003 003a 44
E: 2901.045071 0003 0000 1011
E: 2901.045072 0003 0001 492
E: 2901.045072 0003 0018 44
E: 2901.045073 0000 0000 0
E: 2901.050689 0003 0035 1014
E: 2901.050690 0003 0036 476
E: 2901.050690 0003 003a 43
E: 2901.050694 0003 0000 1014
E: 2901.050695 0003 0001 476
E: 2901.050695 0003 0018 43
E: 2901.050696 0000 0000 0
E: 2901.056112 0003 0035 1015
E: 2901.056114 0003 0036 458
E: 2901.056114 0003 003a 42
E: 2901.056117 0003 0000 1015
E: 2901.056118 0003 0001 458
E: 2901.056118 0003 0018 42
E: 2901.056119 0000 0000 0
E: 2901.061746 0003 0035 1018
E: 2901.061748 0003 0036 442
E: 2901.061748 0003 003a 43
E: 2901.061749 0003 0030 180
E: 2901.061752 0003 0000 1018
E: 2901.061752 0003 0001 442
E: 2901.061753 0003 0018 43
E: 2901.061754 0000 0000 0
E: 2901.067307 0003 0035 1021
E: 2901.067308 0003 0036 429
E: 2901.067308 0003 003a 45
E: 2901.067311 0003 0000 1021
E: 2901.067312 0003 0001 429
E: 2901.067312 0003 0018 45
E: 2901.067313 0000 0000 0
E: 2901.072730 0003 0035 1024
E: 2901.072731 0003 0036 418
E: 2901.072731 0003 003a 42
E: 2901.072734 0003 0000 1024
E: 2901.072735 0003 0001 418
E: 2901.072735 0003 0018 42
E: 2901.072736 0000 0000 0
E: 2901.078254 0003 0035 1026
E: 2901.078255 0003 0036 407
E: 2901.078256 0003 003a 44
E: 2901.078258 0003 0000 1026
E: 2901.078259 0003 0001 407
E: 2901.078259 0003 0018 44
E: 2901.078260 0000 0000 0
E: 2901.083791 0003 0035 1028
E: 2901.083792 0003 0036 398
E: 2901.083792 0003 003a 43
E: 2901.083795 0003 0000 1028
E: 2901.083795 0003 0001 398
E: 2901.083796 0003 0018 43
E: 2901.083796 0000 0000 0
E: 2901.089355 0003 0035 1032
E: 2901.089357 0003 0036 387
E: 2901.089357 0003 003a 44
E: 2901.089361 0003 0000 1032
E: 2901.089361 0003 0001 387
E: 2901.089362 0003 0018 44
E: 2901.089362 0000 0000 0
E: 2901.094948 0003 0035 1037
E: 2901.094950 0003 0036 378
E: 2901.094950 0003 003a 41
E: 2901.094951 0003 0030 220
E: 2901.094954 0003 0000 1037
E: 2901.094954 0003 0001 378
E: 2901.094955 0003 0018 41
E: 2901.094956 0000 0000 0
E: 2901.100545 0003 0035 1039
E: 2901.100547 0003 0036 370
E: 2901.100547 0003 003a 43
E: 2901.100551 0003 0000 1039
E: 2901.100551 0003 0001 370
E: 2901.100552 0003 0018 43
E: 2901.100552 0000 0000 0
E: 2901.105948 0003 0035 1043
E: 2901.105950 0003 0036 360
E: 2901.105950 0003 003a 46
E: 2901.105954 0003 0000 1043
E: 2901.105954 0003 0001 360
E: 2901.105955 0003 0018 46
E: 2901.105955 0000 0000 0
E: 2901.111574 0003 0035 1046
E: 2901.111576 0003 0036 352
E: 2901.111576 0003 003a 41
E: 2901.111579 0003 0000 1046
E: 2901.111579 0003 0001 352
E: 2901.111580 0003 0018 41
E: 2901.111580 0000 0000 0
E: 2901.117160 0003 0035 1048
E: 2901.117161 0003 0036 345
E: 2901.117162 0003 003a 43
E: 2901.117164 0003 0000 1048
E: 2901.117164 0003 0001 345
E: 2901.117165 0003 0018 43
E: 2901.117165 0000 0000 0
E: 2901.123352 0003 0035 1049
E: 2901.123353 0003 0036 340
E: 2901.123354 0003 003a 45
E: 2901.123357 0003 0000 1049
E: 2901.123357 0003 0001 340
E: 2901.123358 0003 0018 45
E: 2901.123358 0000 0000 0
E: 2901.128755 0003 0035 1052
E: 2901.128755 0003 0036 334
E: 2901.128755 0003 003a 43
E: 2901.128755 0003 0030 180
E: 2901.128757 0003 0000 1052
E: 2901.128757 0003 0001 334
E: 2901.128757 0003 0018 43
E: 2901.128757 0000 0000 0
E: 2901.134388 0003 0035 1055
E: 2901.134389 0003 0036 329
E: 2901.134389 0003 003a 44
E: 2901.134393 0003 0000 1055
E: 2901.134393 0003 0001 329
E: 2901.134394 0003 0018 44
E: 2901.134394 0000 0000 0
E: 2901.139786 0003 0035 1057
E: 2901.139786 0003 0036 323
E: 2901.139786 0003 003a 43
E: 2901.139787 0003 0000 1057
E: 2901.139787 0003 0001 323
E: 2901.139787 0003 0018 43
E: 2901.139788 0000 0000 0
E: 2901.145244 0003 0035 1060
E: 2901.145246 0003 0036 320
E: 2901.145246 0003 003a 45
E: 2901.145249 0003 0000 1060
E: 2901.145250 0003 0001 320
E: 2901.145250 0003 0018 45
E: 2901.145251 0000 0000 0
E: 2901.150758 0003 0035 1061
E: 2901.150758 0003 0036 315
E: 2901.150759 0003 003a 42
E: 2901.150760 0003 0000 1061
E: 2901.150760 0003 0001 315
E: 2901.150760 0003 0018 42
E: 2901.150760 0000 0000 0
E: 2901.156278 0003 0035 1063
E: 2901.156279 0003 0036 311
E: 2901.156279 0003 003a 46
E: 2901.156280 0003 0000 1063
E: 2901.156280 0003 0001 311
E: 2901.156280 0003 0018 46
E: 2901.156280 0000 0000 0
E: 2901.161720 0003 0035 1065
E: 2901.161721 0003 0036 308
E: 2901.161722 0003 003a 43
E: 2901.161724 0003 0000 1065
E: 2901.161725 0003 0001 308
E: 2901.161725 0003 0018 43
E: 2901.161726 0000 0000 0
E: 2901.167468 0003 0035 1066
E: 2901.167469 0003 0036 305
E: 2901.167470 0003 003a 44
E: 2901.167470 0003 0030 220
E: 2901.167474 0003 0000 1066
E: 2901.167474 0003 0001 305
E: 2901.167475 0003 0018 44
E: 2901.167475 0000 0000 0
E: 2901.172962 0003 0035 1068
E: 2901.172963 0003 0036 302
E: 2901.172967 0003 0000 1068
E: 2901.172967 0003 0001 302
E: 2901.172968 0000 0000 0
E: 2901.178395 0003 0035 1069
E: 2901.178396 0003 0036 299
E: 2901.178397 0003 003a 46
E: 2901.178397 0003 0030 254
E: 2901.178400 0003 0000 1069
E: 2901.178400 0003 0001 299
E: 2901.178401 0003 0018 46
E: 2901.178401 0000 0000 0
E: 2901.183956 0003 0035 1071
E: 2901.183958 0003 0036 297
E: 2901.183958 0003 0030 220
E: 2901.183962 0003 0000 1071
E: 2901.183962 0003 0001 297
E: 2901.183963 0000 0000 0
E: 2901.189458 0003 0036 296
E: 2901.189459 0003 003a 43
E: 2901.189461 0003 0001 296
E: 2901.189462 0003 0018 43
E: 2901.189462 0000 0000 0
E: 2901.195038 0003 0035 1072
E: 2901.195039 0003 0036 294
E: 2901.195041 0003 0000 1072
E: 2901.195041 0003 0001 294
E: 2901.195042 0000 0000 0
E: 2901.200666 0003 0035 1073
E: 2901.200667 0003 0036 293
E: 2901.200667 0003 003a 45
E: 2901.200669 0003 0000 1073
E: 2901.200670 0003 0001 293
E: 2901.200670 0003 0018 45
E: 2901.200671 0000 0000 0
E: 2901.206176 0003 0035 1074
E: 2901.206177 0003 0036 292
E: 2901.206178 0003 003a 46
E: 2901.206180 0003 0000 1074
E: 2901.206181 0003 0001 292
E: 2901.206181 0003 0018 46
E: 2901.206182 0000 0000 0
E: 2901.211752 0003 0035 1075
E: 2901.211753 0003 003a 44
E: 2901.211755 0003 0000 1075
E: 2901.211756 0003 0018 44
E: 2901.211757 0000 0000 0
E: 2901.217328 0003 0036 291
E: 2901.217329 0003 003a 46
E: 2901.217332 0003 0001 291
E: 2901.217332 0003 0018 46
E: 2901.217333 0000 0000 0
E: 2901.222897 0003 003a 48
E: 2901.222900 0003 0018 48
E: 2901.222900 0000 0000 0
E: 2901.228506 0003 003a 47
E: 2901.228510 0003 0018 47
E: 2901.228511 0000 0000 0
E: 2901.234016 0003 003a 49
E: 2901.234017 0003 0030 180
E: 2901.234020 0003 0018 49
E: 2901.234020 0000 0000 0
E: 2901.239538 0003 003a 52
E: 2901.239540 0003 0030 220
E: 2901.239543 0003 0018 52
E: 2901.239544 0000 0000 0
E: 2901.245010 0003 0036 292
E: 2901.245011 0003 003a 50
E: 2901.245013 0003 0001 292
E: 2901.245014 0003 0018 50
E: 2901.245014 0000 0000 0
E: 2901.250678 0003 0035 1074
E: 2901.250679 0003 0036 293
E: 2901.250680 0003 003a 49
E: 2901.250683 0003 0000 1074
E: 2901.250683 0003 0001 293
E: 2901.250684 0003 0018 49
E: 2901.250684 0000 0000 0
E: 2901.256107 0003 003a 53
E: 2901.256110 0003 0018 53
E: 2901.256111 0000 0000 0
E: 2901.261607 0003 0035 1073
E: 2901.261608 0003 0036 295
E: 2901.261608 0003 003a 52
E: 2901.261610 0003 0000 1073
E: 2901.261611 0003 0001 295
E: 2901.261611 0003 0018 52
E: 2901.261612 0000 0000 0
E: 2901.267197 0003 0035 1072
E: 2901.267198 0003 0036 297
E: 2901.267200 0003 0000 1072
E: 2901.267201 0003 0001 297
E: 2901.267202 0000 0000 0
E: 2901.272767 0003 0035 1071
E: 2901.272768 0003 0036 299
E: 2901.272769 0003 003a 54
E: 2901.272772 0003 0000 1071
E: 2901.272773 0003 0001 299
E: 2901.272773 0003 0018 54
E: 2901.272774 0000 0000 0
E: 2901.278263 0003 0035 1070
E: 2901.278265 0003 0036 301
E: 2901.278266 0003 003a 51
E: 2901.278270 0003 0000 1070
E: 2901.278271 0003 0001 301
E: 2901.278272 0003 0018 51
E: 2901.278273 0000 0000 0
E: 2901.283784 0003 0035 1068
E: 2901.283785 0003 0036 305
E: 2901.283786 0003 003a 53
E: 2901.283788 0003 0000 1068
E: 2901.283789 0003 0001 305
E: 2901.283789 0003 0018 53
E: 2901.283790 0000 0000 0
E: 2901.289280 0003 0035 1066
E: 2901.289281 0003 0036 308
E: 2901.289282 0003 003a 52
E: 2901.289284 0003 0000 1066
E: 2901.289285 0003 0001 308
E: 2901.289285 0003 0018 52
E: 2901.289286 0000 0000 0
E: 2901.294788 0003 0035 1064
E: 2901.294789 0003 0036 311
E: 2901.294789 0003 003a 51
E: 2901.294791 0003 0000 1064
E: 2901.294792 0003 0001 311
E: 2901.294792 0003 0018 51
E: 2901.294793 0000 0000 0
E: 2901.300382 0003 0035 1063
E: 2901.300383 0003 0036 313
E: 2901.300384 0003 003a 49
E: 2901.300386 0003 0000 1063
E: 2901.300386 0003 0001 313
E: 2901.300387 0003 0018 49
E: 2901.300387 0000 0000 0
E: 2901.305944 0003 0035 1060
E: 2901.305945 0003 0036 316
E: 2901.305946 0003 003a 51
E: 2901.305948 0003 0000 1060
E: 2901.305948 0003 0001 316
E: 2901.305949 0003 0018 51
E: 2901.305950 0000 0000 0
E: 2901.311432 0003 0035 1058
E: 2901.311433 0003 0036 319
E: 2901.311433 0003 003a 52
E: 2901.311436 0003 0000 1058
E: 2901.311436 0003 0001 319
E: 2901.311437 0003 0018 52
E: 2901.311437 0000 0000 0
E: 2901.316994 0003 0035 1056
E: 2901.316995 0003 0036 321
E: 2901.316995 0003 003a 50
E: 2901.316998 0003 0000 1056
E: 2901.316998 0003 0001 321
E: 2901.316999 0003 0018 50
E: 2901.316999 0000 0000 0
E: 2901.323335 0003 0035 1053
E: 2901.323336 0003 0036 323
E: 2901.323340 0003 0000 1053
E: 2901.323340 0003 0001 323
E: 2901.323341 0000 0000 0
E: 2901.328721 0003 0035 1051
E: 2901.328722 0003 0036 324
E: 2901.328723 0003 003a 49
E: 2901.328725 0003 0000 1051
E: 2901.328726 0003 0001 324
E: 2901.328726 0003 0018 49
E: 2901.328727 0000 0000 0
E: 2901.334297 0003 0035 1048
E: 2901.334297 0003 0036 325
E: 2901.334297 0003 0030 254
E: 2901.334298 0003 0000 1048
E: 2901.334298 0003 0001 325
E: 2901.334299 0000 0000 0
E: 2901.339904 0003 0035 1046
E: 2901.339906 0003 0036 327
E: 2901.339907 0003 0030 220
E: 2901.339910 0003 0000 1046
E: 2901.339911 0003 0001 327
E: 2901.339912 0000 0000 0
E: 2901.345379 0003 0035 1044
E: 2901.345380 0003 0036 328
E: 2901.345380 0003 003a 50
E: 2901.345380 0003 0030 254
E: 2901.345381 0003 0000 1044
E: 2901.345381 0003 0001 328
E: 2901.345381 0003 0018 50
E: 2901.345382 0000 0000 0
E: 2901.351010 0003 0035 1041
E: 2901.351011 0003 003a 49
E: 2901.351014 0003 0000 1041
E: 2901.351015 0003 0018 49
E: 2901.351015 0000 0000 0
E: 2901.356536 0003 0035 1040
E: 2901.356538 0003 0036 329
E: 2901.356538 0003 003a 47
E: 2901.356542 0003 0000 1040
E: 2901.356542 0003 0001 329
E: 2901.356543 0003 0018 47
E: 2901.356544 0000 0000 0
E: 2901.362090 0003 0035 1038
E: 2901.362094 0003 0000 1038
E: 2901.362095 0000 0000 0
E: 2901.367654 0003 0035 1037
E: 2901.367656 0003 003a 49
E: 2901.367659 0003 0000 1037
E: 2901.367660 0003 0018 49
E: 2901.367660 0000 0000 0
E: 2901.373152 0003 0035 1036
E: 2901.373153 0003 003a 48
E: 2901.373155 0003 0000 1036
E: 2901.373156 0003 0018 48
E: 2901.373156 0000 0000 0
E: 2901.378724 0003 0035 1035
E: 2901.378726 0003 003a 47
E: 2901.378729 0003 0000 1035
E: 2901.378730 0003 0018 47
E: 2901.378731 0000 0000 0
E: 2901.384265 0003 0036 328
E: 2901.384266 0003 0001 328
E: 2901.384267 0000 0000 0
E: 2901.389793 0003 0035 1034
E: 2901.389794 0003 003a 45
E: 2901.389796 0003 0000 1034
E: 2901.389796 0003 0018 45
E: 2901.389797 0000 0000 0
E: 2901.401045 0003 0035 1033
E: 2901.401047 0003 003a 46
E: 2901.401049 0003 0000 1033
E: 2901.401050 0003 0018 46
E: 2901.401051 0000 0000 0
E: 2901.412027 0003 0035 1032
E: 2901.412032 0003 0000 1032
E: 2901.412034 0000 0000 0
E: 2901.417772 0003 0035 1031
E: 2901.417774 0003 0036 327
E: 2901.417777 0003 0000 1031
E: 2901.417778 0003 0001 327
E: 2901.417779 0000 0000 0
E: 2901.423196 0003 0035 1029
E: 2901.423197 0003 003a 45
E: 2901.423199 0003 0000 1029
E: 2901.423200 0003 0018 45
E: 2901.423201 0000 0000 0
E: 2901.428745 0003 0035 1026
E: 2901.428746 0003 003a 47
E: 2901.428747 0003 0030 220
E: 2901.428749 0003 0000 1026
E: 2901.428750 0003 0018 47
E: 2901.428751 0000 0000 0
E: 2901.434306 0003 0035 1021
E: 2901.434307 0003 0036 325
E: 2901.434307 0003 003a 48
E: 2901.434308 0003 0000 1021
E: 2901.434309 0003 0001 325
E: 2901.434309 0003 0018 48
E: 2901.434309 0000 0000 0
E: 2901.439793 0003 0035 1014
E: 2901.439794 0003 0036 324
E: 2901.439795 0003 003a 47
E: 2901.439795 0003 0030 180
E: 2901.439797 0003 0000 1014
E: 2901.439797 0003 0001 324
E: 2901.439798 0003 0018 47
E: 2901.439799 0000 0000 0
E: 2901.445346 0003 0035 1001
E: 2901.445346 0003 0036 322
E: 2901.445347 0003 003a 44
E: 2901.445347 0003 0030 220
E: 2901.445349 0003 0000 1001
E: 2901.445349 0003 0001 322
E: 2901.445349 0003 0018 44
E: 2901.445350 0000 0000 0
E: 2901.451087 0003 0035 991
E: 2901.451088 0003 0036 321
E: 2901.451089 0003 003a 47
E: 2901.451092 0003 0000 991
E: 2901.451092 0003 0001 321
E: 2901.451093 0003 0018 47
E: 2901.451093 0000 0000 0
E: 2901.456622 0003 0035 978
E: 2901.456623 0003 0036 317
E: 2901.456624 0003 003a 48
E: 2901.456627 0003 0000 978
E: 2901.456628 0003 0001 317
E: 2901.456628 0003 0018 48
E: 2901.456629 0000 0000 0
E: 2901.462016 0003 0035 967
E: 2901.462018 0003 0036 313
E: 2901.462019 0003 003a 47
E: 2901.462019 0003 0030 254
E: 2901.462022 0003 0000 967
E: 2901.462022 0003 0001 313
E: 2901.462023 0003 0018 47
E: 2901.462023 0000 0000 0
E: 2901.467577 0003 0035 956
E: 2901.467578 0003 0036 311
E: 2901.467579 0003 003a 49
E: 2901.467581 0003 0000 956
E: 2901.467582 0003 0001 311
E: 2901.467582 0003 0018 49
E: 2901.467583 0000 0000 0
E: 2901.473196 0003 0035 945
E: 2901.473197 0003 0036 308
E: 2901.473198 0003 003a 48
E: 2901.473201 0003 0000 945
E: 2901.473201 0003 0001 308
E: 2901.473202 0003 0018 48
E: 2901.473202 0000 0000 0
E: 2901.478684 0003 0035 935
E: 2901.478685 0003 0036 305
E: 2901.478686 0003 003a 47
E: 2901.478689 0003 0000 935
E: 2901.478689 0003 0001 305
E: 2901.478690 0003 0018 47
E: 2901.478691 0000 0000 0
E: 2901.484232 0003 0035 925
E: 2901.484232 0003 0036 303
E: 2901.484232 0003 003a 44
E: 2901.484233 0003 0000 925
E: 2901.484234 0003 0001 303
E: 2901.484234 0003 0018 44
E: 2901.484234 0000 0000 0
E: 2901.489853 0003 0035 916
E: 2901.489853 0003 0036 302
E: 2901.489853 0003 003a 49
E: 2901.489854 0003 0030 220
E: 2901.489855 0003 0000 916
E: 2901.489855 0003 0001 302
E: 2901.489855 0003 0018 49
E: 2901.489856 0000 0000 0
E: 2901.495328 0003 0035 907
E: 2901.495329 0003 0036 301
E: 2901.495329 0003 003a 48
E: 2901.495330 0003 0000 907
E: 2901.495330 0003 0001 301
E: 2901.495330 0003 0018 48
E: 2901.495331 0000 0000 0
E: 2901.500989 0003 0035 901
E: 2901.500990 0003 0036 300
E: 2901.500993 0003 0000 901
E: 2901.500993 0003 0001 300
E: 2901.500994 0000 0000 0
E: 2901.506545 0003 0035 893
E: 2901.506547 0003 003a 49
E: 2901.506549 0003 0000 893
E: 2901.506550 0003 0018 49
E: 2901.506551 0000 0000 0
E: 2901.512014 0003 0035 886
E: 2901.512015 0003 0036 299
E: 2901.512017 0003 0000 886
E: 2901.512018 0003 0001 299
E: 2901.512018 0000 0000 0
E: 2901.518233 0003 0035 881
E: 2901.518236 0003 0000 881
E: 2901.518237 0000 0000 0
E: 2901.523869 0003 0035 873
E: 2901.523870 0003 0036 301
E: 2901.523871 0003 003a 50
E: 2901.523874 0003 0000 873
E: 2901.523874 0003 0001 301
E: 2901.523875 0003 0018 50
E: 2901.523875 0000 0000 0
E: 2901.529322 0003 0035 867
E: 2901.529324 0003 003a 47
E: 2901.529326 0003 0000 867
E: 2901.529327 0003 0018 47
E: 2901.529328 0000 0000 0
E: 2901.534835 0003 0035 860
E: 2901.534836 0003 0036 302
E: 2901.534836 0003 003a 49
E: 2901.534837 0003 0000 860
E: 2901.534837 0003 0001 302
E: 2901.534837 0003 0018 49
E: 2901.534838 0000 0000 0
E: 2901.540470 0003 0035 853
E: 2901.540471 0003 0036 304
E: 2901.540474 0003 0000 853
E: 2901.540475 0003 0001 304
E: 2901.540476 0000 0000 0
E: 2901.545869 0003 0035 846
E: 2901.545870 0003 0036 305
E: 2901.545872 0003 0000 846
E: 2901.545872 0003 0001 305
E: 2901.545873 0000 0000 0
E: 2901.551507 0003 0035 840
E: 2901.551508 0003 0036 308
E: 2901.551508 0003 003a 50
E: 2901.551512 0003 0000 840
E: 2901.551523 0003 0001 308
E: 2901.551523 0003 0018 50
E: 2901.551524 0000 0000 0
E: 2901.557100 0003 0035 834
E: 2901.557101 0003 0036 309
E: 2901.557101 0003 003a 49
E: 2901.557103 0003 0000 834
E: 2901.557103 0003 0001 309
E: 2901.557104 0003 0018 49
E: 2901.557104 0000 0000 0
E: 2901.562507 0003 0035 828
E: 2901.562509 0003 0036 312
E: 2901.562509 0003 003a 51
E: 2901.562510 0003 0030 254
E: 2901.562513 0003 0000 828
E: 2901.562513 0003 0001 312
E: 2901.562514 0003 0018 51
E: 2901.562514 0000 0000 0
E: 2901.567961 0003 0035 822
E: 2901.567962 0003 0036 314
E: 2901.567963 0003 0000 822
E: 2901.567963 0003 0001 314
E: 2901.567963 0000 0000 0
E: 2901.573578 0003 0035 816
E: 2901.573579 0003 0036 317
E: 2901.573581 0003 0000 816
E: 2901.573582 0003 0001 317
E: 2901.573583 0000 0000 0
E: 2901.579011 0003 0035 810
E: 2901.579012 0003 0036 319
E: 2901.579013 0003 003a 52
E: 2901.579015 0003 0000 810
E: 2901.579015 0003 0001 319
E: 2901.579016 0003 0018 52
E: 2901.579016 0000 0000 0
E: 2901.584546 0003 0035 807
E: 2901.584547 0003 0036 320
E: 2901.584549 0003 0000 807
E: 2901.584549 0003 0001 320
E: 2901.584550 0000 0000 0
E: 2901.590303 0003 0035 804
E: 2901.590305 0003 0036 321
E: 2901.590308 0003 0000 804
E: 2901.590308 0003 0001 321
E: 2901.590321 0000 0000 0
E: 2901.595679 0003 0035 800
E: 2901.595681 0003 0036 322
E: 2901.595681 0003 003a 49
E: 2901.595684 0003 0000 800
E: 2901.595685 0003 0001 322
E: 2901.595685 0003 0018 49
E: 2901.595686 0000 0000 0
E: 2901.601241 0003 0035 798
E: 2901.601242 0003 0036 323
E: 2901.601242 0003 003a 55
E: 2901.601245 0003 0000 798
E: 2901.601245 0003 0001 323
E: 2901.601246 0003 0018 55
E: 2901.601247 0000 0000 0
E: 2901.606771 0003 0035 795
E: 2901.606772 0003 003a 54
E: 2901.606776 0003 0000 795
E: 2901.606777 0003 0018 54
E: 2901.606777 0000 0000 0
E: 2901.612410 0003 0035 793
E: 2901.612412 0003 0036 324
E: 2901.612413 0003 003a 55
E: 2901.612417 0003 0000 793
E: 2901.612418 0003 0001 324
E: 2901.612419 0003 0018 55
E: 2901.612420 0000 0000 0
E: 2901.617839 0003 0035 792
E: 2901.617840 0003 0036 323
E: 2901.617840 0003 003a 52
E: 2901.617842 0003 0000 792
E: 2901.617842 0003 0001 323
E: 2901.617842 0003 0018 52
E: 2901.617842 0000 0000 0
E: 2901.623494 0003 0035 791
E: 2901.623495 0003 003a 54
E: 2901.623498 0003 0000 791
E: 2901.623499 0003 0018 54
E: 2901.623499 0000 0000 0
E: 2901.628961 0003 0035 790
E: 2901.628963 0003 003a 52
E: 2901.628967 0003 0000 790
E: 2901.628968 0003 0018 52
E: 2901.628969 0000 0000 0
E: 2901.640151 0003 0035 789
E: 2901.640156 0003 0000 789
E: 2901.640157 0000 0000 0
E: 2901.645565 0003 0035 788
E: 2901.645566 0003 003a 53
E: 2901.645569 0003 0000 788
E: 2901.645570 0003 0018 53
E: 2901.645571 0000 0000 0
E: 2901.651073 0003 003a 52
E: 2901.651078 0003 0018 52
E: 2901.651079 0000 0000 0
E: 2901.656575 0003 0035 787
E: 2901.656576 0003 003a 53
E: 2901.656579 0003 0000 787
E: 2901.656580 0003 0018 53
E: 2901.656581 0000 0000 0
E: 2901.662071 0003 003a 52
E: 2901.662073 0003 0018 52
E: 2901.662073 0000 0000 0
E: 2901.667677 0003 0035 786
E: 2901.667678 0003 003a 50
E: 2901.667681 0003 0000 786
E: 2901.667682 0003 0018 50
E: 2901.667683 0000 0000 0
E: 2901.673208 0003 003a 49
E: 2901.673211 0003 0018 49
E: 2901.673212 0000 0000 0
E: 2901.678775 0003 003a 46
E: 2901.678779 0003 0018 46
E: 2901.678780 0000 0000 0
E: 2901.689898 0003 003a 38
E: 2901.689900 0003 0030 220
E: 2901.689903 0003 0018 38
E: 2901.689904 0000 0000 0
E: 2901.695364 0003 0035 787
E: 2901.695365 0003 003a 26
E: 2901.695366 0003 0030 126
E: 2901.695368 0003 0000 787
E: 2901.695369 0003 0018 26
E: 2901.695370 0000 0000 0
E: 2901.715934 0003 0039 -1
E: 2901.715937 0001 014a 0
E: 2901.715938 0001 0145 0
E: 2901.715939 0003 0018 0
E: 2901.715940 0000 0000 0
E: 2901.831633 0003 0039 1041
E: 2901.831634 0003 0035 813
E: 2901.831635 0003 0036 427
E: 2901.831635 0003 003a 56
E: 2901.831636 0003 0030 254
E: 2901.831637 0001 014a 1
E: 2901.831638 0001 0145 1
E: 2901.831639 0003 0000 813
E: 2901.831640 0003 0001 427
E: 2901.831640 0003 0018 56
E: 2901.831641 0000 0000 0
E: 2901.837019 0003 003a 55
E: 2901.837022 0003 0018 55
E: 2901.837023 0000 0000 0
E: 2901.848067 0003 003a 56
E: 2901.848072 0003 0018 56
E: 2901.848072 0000 0000 0
E: 2901.853570 0003 003a 53
E: 2901.853574 0003 0018 53
E: 2901.853575 0000 0000 0
E: 2901.859110 0003 003a 55
E: 2901.859113 0003 0018 55
E: 2901.859114 0000 0000 0
E: 2901.864612 0003 003a 50
E: 2901.864612 0003 0030 220
E: 2901.864613 0003 0018 50
E: 2901.864613 0000 0000 0
E: 2901.870126 0003 003a 43
E: 2901.870128 0003 0018 43
E: 2901.870128 0000 0000 0
E: 2901.875674 0003 0036 428
E: 2901.875675 0003 003a 33
E: 2901.875676 0003 0030 180
E: 2901.875678 0003 0001 428
E: 2901.875679 0003 0018 33
E: 2901.875680 0000 0000 0
E: 2901.896222 0003 0039 -1
E: 2901.896225 0001 014a 0
E: 2901.896226 0001 0145 0
E: 2901.896227 0003 0018 0
E: 2901.896228 0000 0000 0
E: 2901.896728 0003 002f 0
E: 2901.896728 0003 0039 -1
E: 2901.896728 0003 002f 1
E: 2901.896728 0003 0039 -1
E: 2901.896728 0003 002f 2
E: 2901.896728 0003 0039 -1
E: 2901.896728 0003 002f 3
E: 2901.896728 0003 0039 -1
E: 2901.896728 0003 002f 4
E: 2901.896728 0003 0039 -1
E: 2901.896728 0003 002f 5
E: 2901.896728 0003 0039 -1
E: 2901.896728 0003 002f 6
E: 2901.896728 0003 0039 -1
E: 2901.896728 0003 002f 7
E: 2901.896728 0003 0039 -1
E: 2901.896728 0003 002f 8
E: 2901.896728 0003 0039 -1
E: 2901.896728 0003 002f 9
E: 2901.896728 0003 0039 -1
