Some data

#beginTestCaseResult dEQP-GLES2.functional.prerequisite.read_pixels
<?xml version="1.0" encoding="UTF-8"?>
<TestCaseResult Version="0.3.4" CasePath="dEQP-GLES2.functional.prerequisite.read_pixels" CaseType="SelfValidate">
 <Number Name="TestDuration" Description="Test case duration in microseconds" Tag="Time" Unit="us">11202</Number>
 <Result StatusCode="Pass">Pass</Result>
</TestCaseResult>

#beginTestCaseResult dEQP-GLES2.functional.prerequisite.read_pixels2
<?xml version="1.0" encoding="UTF-8"?>
<TestCaseResult Version="0.3.4" CasePath="dEQP-GLES2.functional.prerequisite.read_pixels2" CaseType="SelfValidate">
 <Number Name="TestDuration" Description="Test case duration in microseconds" Tag="Time" Unit="us">11202</Number>
 <Result StatusCode="Pass">Pass</Result>
</TestCaseResult>

#endTestCaseResult

Some other data
