{
    "link_options": {
        "link_class": "GPIBLink",
        "minor": 0,
        "primary": 13
    },
    "sample_number": 5,
    "wlan_duty_cycle": null,
    "bluetooth_duty_cycle": null,
    "zigbee_duty_cycle": null
}
