{
  "_comment": "See http://www.chromium.org/chromium-os/building-chromium-os/disk-layout-format",
  "metadata":{
    "rootdev_base": "/sys/devices/pci0000:00/0000:00:1f.2/ata1/host*/target*/*/block/sd*"
  },
  "parent": "legacy_disk_layout.json",
  "layouts":{
    # common is the standard layout template.
    "common": [
      {
        # Slot A rootfs. Adjust to allow for more space.
        "num": 3,
        "fs_size": "1350 MiB",
        "size": "2048 MiB"
      }
    ]
  }
}
