# device: Cypress APA Trackpad (cyapa)
# bit: 0B 00 00 00 00 00 00 00
# key: 00 00 00 00 00 00 00 00 00 00 00 00 00 00 00 00 00 00 00 00 00 00 00 00 00 00 00 00 00 00 00 00 00 00 01 00 00 00 00 00 20 E5 00 00 00 00 00 00 00 00 00 00 00 00 00 00 00 00 00 00 00 00 00 00 00 00 00 00 00 00 00 00 00 00 00 00 00 00 00 00 00 00 00 00 00 00 00 00 00 00 00 00 00 00 00 00
# rel: 00 00 00 00 00 00 00 00
# abs: 03 00 00 01 00 80 60 06
# led: 00 00 00 00 00 00 00 00
# prp: 05 00 00 00 00 00 00 00
# absinfo: 0 0 1280 0 0 13
# absinfo: 1 0 800 0 0 14
# absinfo: 24 0 255 0 0 0
# absinfo: 47 0 14 0 0 0
# absinfo: 53 0 1280 0 0 13
# absinfo: 54 0 800 0 0 14
# absinfo: 57 0 65535 0 0 0
# absinfo: 58 0 255 0 0 0
E: 2371.816219 0003 002f 0
E: 2371.816219 0003 0030 0
E: 2371.816219 0003 0031 0
E: 2371.816219 0003 0032 0
E: 2371.816219 0003 0033 0
E: 2371.816219 0003 0034 0
E: 2371.816219 0003 0035 625
E: 2371.816219 0003 0036 518
E: 2371.816219 0003 0037 0
E: 2371.816219 0003 0038 0
E: 2371.816219 0003 0039 481
E: 2371.816219 0003 003a 5
E: 2371.816219 0003 003b 0
E: 2371.816219 0003 002f 1
E: 2371.816219 0003 0030 0
E: 2371.816219 0003 0031 0
E: 2371.816219 0003 0032 0
E: 2371.816219 0003 0033 0
E: 2371.816219 0003 0034 0
E: 2371.816219 0003 0035 859
E: 2371.816219 0003 0036 533
E: 2371.816219 0003 0037 0
E: 2371.816219 0003 0038 0
E: 2371.816219 0003 0039 482
E: 2371.816219 0003 003a 6
E: 2371.816219 0003 003b 0
E: 2371.816219 0003 002f 2
E: 2371.816219 0003 0039 -1
E: 2371.816219 0003 002f 3
E: 2371.816219 0003 0039 -1
E: 2371.816219 0003 002f 4
E: 2371.816219 0003 0039 -1
E: 2371.816219 0003 002f 5
E: 2371.816219 0003 0039 -1
E: 2371.816219 0003 002f 6
E: 2371.816219 0003 0039 -1
E: 2371.816219 0003 002f 7
E: 2371.816219 0003 0039 -1
E: 2371.816219 0003 002f 8
E: 2371.816219 0003 0039 -1
E: 2371.816219 0003 002f 9
E: 2371.816219 0003 0039 -1
E: 2371.816219 0003 002f 10
E: 2371.816219 0003 0039 -1
E: 2371.816219 0003 002f 11
E: 2371.816219 0003 0039 -1
E: 2371.816219 0003 002f 12
E: 2371.816219 0003 0039 -1
E: 2371.816219 0003 002f 13
E: 2371.816219 0003 0039 -1
E: 2371.816219 0003 002f 14
E: 2371.816219 0003 0039 -1
E: 2371.816219 0003 002f 1
E: 2371.816219 0001 014a 1
E: 2371.816219 0001 014d 1
E: 2371.816219 0000 0000 0
E: 2371.817886 0003 002f 0
E: 2371.817886 0003 0036 520
E: 2371.817886 0003 003a 10
E: 2371.817886 0003 002f 1
E: 2371.817886 0003 0035 860
E: 2371.817886 0003 0036 538
E: 2371.817886 0003 003a 9
E: 2371.817886 0003 0001 520
E: 2371.817886 0003 0018 10
E: 2371.817886 0000 0000 0
E: 2371.830549 0003 002f 0
E: 2371.830549 0003 0036 521
E: 2371.830549 0003 003a 13
E: 2371.830549 0003 002f 1
E: 2371.830549 0003 003a 10
E: 2371.830549 0003 0001 521
E: 2371.830549 0003 0018 13
E: 2371.830549 0000 0000 0
E: 2371.843209 0003 002f 0
E: 2371.843209 0003 0035 627
E: 2371.843209 0003 003a 14
E: 2371.843209 0003 0000 627
E: 2371.843209 0003 0018 14
E: 2371.843209 0000 0000 0
E: 2371.855842 0003 0035 628
E: 2371.855842 0003 003a 15
E: 2371.855842 0003 002f 1
E: 2371.855842 0003 0035 861
E: 2371.855842 0003 003a 11
E: 2371.855842 0003 0000 628
E: 2371.855842 0003 0018 15
E: 2371.855842 0000 0000 0
E: 2371.881043 0003 002f 0
E: 2371.881043 0003 003a 16
E: 2371.881043 0003 002f 1
E: 2371.881043 0003 0035 860
E: 2371.881043 0003 0036 537
E: 2371.881043 0003 0018 16
E: 2371.881043 0000 0000 0
E: 2371.893636 0003 002f 0
E: 2371.893636 0003 0035 629
E: 2371.893636 0003 0036 512
E: 2371.893636 0003 003a 17
E: 2371.893636 0003 002f 1
E: 2371.893636 0003 0035 863
E: 2371.893636 0003 0036 530
E: 2371.893636 0003 0000 629
E: 2371.893636 0003 0001 512
E: 2371.893636 0003 0018 17
E: 2371.893636 0000 0000 0
E: 2371.906228 0003 002f 0
E: 2371.906228 0003 0036 505
E: 2371.906228 0003 003a 18
E: 2371.906228 0003 002f 1
E: 2371.906228 0003 0036 527
E: 2371.906228 0003 0001 505
E: 2371.906228 0003 0018 18
E: 2371.906228 0000 0000 0
E: 2371.918684 0003 002f 0
E: 2371.918684 0003 0035 630
E: 2371.918684 0003 0036 500
E: 2371.918684 0003 003a 19
E: 2371.918684 0003 002f 1
E: 2371.918684 0003 0036 523
E: 2371.918684 0003 0000 630
E: 2371.918684 0003 0001 500
E: 2371.918684 0003 0018 19
E: 2371.918684 0000 0000 0
E: 2371.931175 0003 002f 0
E: 2371.931175 0003 0036 493
E: 2371.931175 0003 003a 20
E: 2371.931175 0003 002f 1
E: 2371.931175 0003 0036 520
E: 2371.931175 0003 0001 493
E: 2371.931175 0003 0018 20
E: 2371.931175 0000 0000 0
E: 2371.943899 0003 002f 0
E: 2371.943899 0003 0036 483
E: 2371.943899 0003 003a 21
E: 2371.943899 0003 002f 1
E: 2371.943899 0003 0036 518
E: 2371.943899 0003 0001 483
E: 2371.943899 0003 0018 21
E: 2371.943899 0000 0000 0
E: 2371.956562 0003 002f 0
E: 2371.956562 0003 0035 633
E: 2371.956562 0003 0036 471
E: 2371.956562 0003 003a 22
E: 2371.956562 0003 002f 1
E: 2371.956562 0003 0035 862
E: 2371.956562 0003 0036 513
E: 2371.956562 0003 0000 633
E: 2371.956562 0003 0001 471
E: 2371.956562 0003 0018 22
E: 2371.956562 0000 0000 0
E: 2371.969066 0003 002f 0
E: 2371.969066 0003 0036 456
E: 2371.969066 0003 003a 21
E: 2371.969066 0003 002f 1
E: 2371.969066 0003 0035 858
E: 2371.969066 0003 0036 501
E: 2371.969066 0003 0001 456
E: 2371.969066 0003 0018 21
E: 2371.969066 0000 0000 0
E: 2371.981908 0003 002f 0
E: 2371.981908 0003 0036 430
E: 2371.981908 0003 002f 1
E: 2371.981908 0003 0036 478
E: 2371.981908 0003 003a 12
E: 2371.981908 0003 0001 430
E: 2371.981908 0000 0000 0
E: 2371.994437 0003 002f 0
E: 2371.994437 0003 0035 635
E: 2371.994437 0003 0036 408
E: 2371.994437 0003 003a 23
E: 2371.994437 0003 002f 1
E: 2371.994437 0003 0036 454
E: 2371.994437 0003 0000 635
E: 2371.994437 0003 0001 408
E: 2371.994437 0003 0018 23
E: 2371.994437 0000 0000 0
E: 2372.007185 0003 002f 0
E: 2372.007185 0003 0035 636
E: 2372.007185 0003 0036 384
E: 2372.007185 0003 002f 1
E: 2372.007185 0003 0035 859
E: 2372.007185 0003 0036 442
E: 2372.007185 0003 003a 11
E: 2372.007185 0003 0000 636
E: 2372.007185 0003 0001 384
E: 2372.007185 0000 0000 0
E: 2372.019666 0003 002f 0
E: 2372.019666 0003 0036 362
E: 2372.019666 0003 003a 22
E: 2372.019666 0003 002f 1
E: 2372.019666 0003 0035 861
E: 2372.019666 0003 0036 425
E: 2372.019666 0003 003a 13
E: 2372.019666 0003 0001 362
E: 2372.019666 0003 0018 22
E: 2372.019666 0000 0000 0
E: 2372.032316 0003 002f 0
E: 2372.032316 0003 0036 336
E: 2372.032316 0003 003a 24
E: 2372.032316 0003 002f 1
E: 2372.032316 0003 0035 859
E: 2372.032316 0003 0036 398
E: 2372.032316 0003 0001 336
E: 2372.032316 0003 0018 24
E: 2372.032316 0000 0000 0
E: 2372.045053 0003 002f 0
E: 2372.045053 0003 0035 640
E: 2372.045053 0003 0036 309
E: 2372.045053 0003 002f 1
E: 2372.045053 0003 0035 858
E: 2372.045053 0003 0036 373
E: 2372.045053 0003 0000 640
E: 2372.045053 0003 0001 309
E: 2372.045053 0000 0000 0
E: 2372.057621 0003 002f 0
E: 2372.057621 0003 0036 279
E: 2372.057621 0003 003a 23
E: 2372.057621 0003 002f 1
E: 2372.057621 0003 0035 859
E: 2372.057621 0003 0036 355
E: 2372.057621 0003 003a 12
E: 2372.057621 0003 0001 279
E: 2372.057621 0003 0018 23
E: 2372.057621 0000 0000 0
E: 2372.070387 0003 002f 0
E: 2372.070387 0003 0036 250
E: 2372.070387 0003 003a 25
E: 2372.070387 0003 002f 1
E: 2372.070387 0003 0035 858
E: 2372.070387 0003 0036 329
E: 2372.070387 0003 003a 14
E: 2372.070387 0003 0001 250
E: 2372.070387 0003 0018 25
E: 2372.070387 0000 0000 0
E: 2372.082930 0003 002f 0
E: 2372.082930 0003 0035 644
E: 2372.082930 0003 0036 223
E: 2372.082930 0003 002f 1
E: 2372.082930 0003 0035 859
E: 2372.082930 0003 0036 296
E: 2372.082930 0003 0000 644
E: 2372.082930 0003 0001 223
E: 2372.082930 0000 0000 0
E: 2372.095750 0003 002f 0
E: 2372.095750 0003 0035 648
E: 2372.095750 0003 0036 187
E: 2372.095750 0003 003a 23
E: 2372.095750 0003 002f 1
E: 2372.095750 0003 0035 864
E: 2372.095750 0003 0036 277
E: 2372.095750 0003 003a 13
E: 2372.095750 0003 0000 648
E: 2372.095750 0003 0001 187
E: 2372.095750 0003 0018 23
E: 2372.095750 0000 0000 0
E: 2372.108894 0003 002f 0
E: 2372.108894 0003 0035 650
E: 2372.108894 0003 0036 165
E: 2372.108894 0003 003a 25
E: 2372.108894 0003 002f 1
E: 2372.108894 0003 0035 867
E: 2372.108894 0003 0036 258
E: 2372.108894 0003 003a 15
E: 2372.108894 0003 0000 650
E: 2372.108894 0003 0001 165
E: 2372.108894 0003 0018 25
E: 2372.108894 0000 0000 0
E: 2372.121818 0003 002f 0
E: 2372.121818 0003 0035 654
E: 2372.121818 0003 0036 147
E: 2372.121818 0003 003a 24
E: 2372.121818 0003 002f 1
E: 2372.121818 0003 0035 869
E: 2372.121818 0003 0036 239
E: 2372.121818 0003 0000 654
E: 2372.121818 0003 0001 147
E: 2372.121818 0003 0018 24
E: 2372.121818 0000 0000 0
E: 2372.134633 0003 002f 0
E: 2372.134633 0003 0035 656
E: 2372.134633 0003 0036 135
E: 2372.134633 0003 003a 23
E: 2372.134633 0003 002f 1
E: 2372.134633 0003 0035 871
E: 2372.134633 0003 0036 223
E: 2372.134633 0003 0000 656
E: 2372.134633 0003 0001 135
E: 2372.134633 0003 0018 23
E: 2372.134633 0000 0000 0
E: 2372.147799 0003 002f 0
E: 2372.147799 0003 0035 657
E: 2372.147799 0003 0036 122
E: 2372.147799 0003 002f 1
E: 2372.147799 0003 0035 873
E: 2372.147799 0003 0036 213
E: 2372.147799 0003 0000 657
E: 2372.147799 0003 0001 122
E: 2372.147799 0000 0000 0
E: 2372.160460 0003 002f 0
E: 2372.160460 0003 0035 658
E: 2372.160460 0003 0036 117
E: 2372.160460 0003 002f 1
E: 2372.160460 0003 0035 874
E: 2372.160460 0003 0036 208
E: 2372.160460 0003 0000 658
E: 2372.160460 0003 0001 117
E: 2372.160460 0000 0000 0
E: 2372.173921 0003 002f 0
E: 2372.173921 0003 0035 660
E: 2372.173921 0003 0036 116
E: 2372.173921 0003 002f 1
E: 2372.173921 0003 0035 872
E: 2372.173921 0003 0036 207
E: 2372.173921 0003 003a 16
E: 2372.173921 0003 0000 660
E: 2372.173921 0003 0001 116
E: 2372.173921 0000 0000 0
E: 2372.186553 0003 002f 0
E: 2372.186553 0003 0035 659
E: 2372.186553 0003 003a 24
E: 2372.186553 0003 002f 1
E: 2372.186553 0003 0035 873
E: 2372.186553 0003 0000 659
E: 2372.186553 0003 0018 24
E: 2372.186553 0000 0000 0
E: 2372.199620 0003 002f 0
E: 2372.199620 0003 0035 658
E: 2372.199620 0003 003a 23
E: 2372.199620 0003 002f 1
E: 2372.199620 0003 0035 875
E: 2372.199620 0003 0036 208
E: 2372.199620 0003 0000 658
E: 2372.199620 0003 0018 23
E: 2372.199620 0000 0000 0
E: 2372.225869 0003 002f 0
E: 2372.225869 0003 003a 24
E: 2372.225869 0003 0018 24
E: 2372.225869 0000 0000 0
E: 2372.291323 0003 0035 659
E: 2372.291323 0003 002f 1
E: 2372.291323 0003 0035 873
E: 2372.291323 0003 0036 207
E: 2372.291323 0003 0000 659
E: 2372.291323 0000 0000 0
E: 2372.356773 0003 002f 0
E: 2372.356773 0003 0036 117
E: 2372.356773 0003 0001 117
E: 2372.356773 0000 0000 0
E: 2372.526931 0003 0036 116
E: 2372.526931 0003 003a 25
E: 2372.526931 0003 0001 116
E: 2372.526931 0003 0018 25
E: 2372.526931 0000 0000 0
E: 2372.552944 0003 0035 660
E: 2372.552944 0003 003a 24
E: 2372.552944 0003 0000 660
E: 2372.552944 0003 0018 24
E: 2372.552944 0000 0000 0
E: 2372.565812 0003 0035 657
E: 2372.565812 0003 0036 121
E: 2372.565812 0003 003a 20
E: 2372.565812 0003 002f 1
E: 2372.565812 0003 0035 876
E: 2372.565812 0003 0036 209
E: 2372.565812 0003 003a 15
E: 2372.565812 0003 0000 657
E: 2372.565812 0003 0001 121
E: 2372.565812 0003 0018 20
E: 2372.565812 0000 0000 0
E: 2372.578736 0003 002f 0
E: 2372.578736 0003 0035 660
E: 2372.578736 0003 0036 131
E: 2372.578736 0003 003a 7
E: 2372.578736 0003 002f 1
E: 2372.578736 0003 0035 874
E: 2372.578736 0003 0036 211
E: 2372.578736 0003 003a 10
E: 2372.578736 0003 0000 660
E: 2372.578736 0003 0001 131
E: 2372.578736 0003 0018 7
E: 2372.578736 0000 0000 0
E: 2372.588436 0003 002f 0
E: 2372.588436 0003 0039 -1
E: 2372.588436 0003 002f 1
E: 2372.588436 0003 0039 -1
E: 2372.588436 0001 014a 0
E: 2372.588436 0001 014d 0
E: 2372.588436 0003 0018 0
E: 2372.588436 0000 0000 0
E: 2372.588936 0003 002f 0
E: 2372.588936 0003 0039 -1
E: 2372.588936 0003 002f 1
E: 2372.588936 0003 0039 -1
E: 2372.588936 0003 002f 2
E: 2372.588936 0003 0039 -1
E: 2372.588936 0003 002f 3
E: 2372.588936 0003 0039 -1
E: 2372.588936 0003 002f 4
E: 2372.588936 0003 0039 -1
E: 2372.588936 0003 002f 5
E: 2372.588936 0003 0039 -1
E: 2372.588936 0003 002f 6
E: 2372.588936 0003 0039 -1
E: 2372.588936 0003 002f 7
E: 2372.588936 0003 0039 -1
E: 2372.588936 0003 002f 8
E: 2372.588936 0003 0039 -1
E: 2372.588936 0003 002f 9
E: 2372.588936 0003 0039 -1
E: 2372.588936 0003 002f 10
E: 2372.588936 0003 0039 -1
E: 2372.588936 0003 002f 11
E: 2372.588936 0003 0039 -1
E: 2372.588936 0003 002f 12
E: 2372.588936 0003 0039 -1
E: 2372.588936 0003 002f 13
E: 2372.588936 0003 0039 -1
E: 2372.588936 0003 002f 14
E: 2372.588936 0003 0039 -1
