# device: ACPI0C50:00 18D1:5028 Touchpad
# bit: 0B 00 00 00 00 00 00 00
# key: 00 00 00 00 00 00 00 00 00 00 00 00 00 00 00 00 00 00 00 00 00 00 00 00 00 00 00 00 00 00 00 00 00 00 01 00 00 00 00 00 20 E5 00 00 00 00 00 00 00 00 00 00 00 00 00 00 00 00 00 00 00 00 00 00 00 00 00 00 00 00 00 00 00 00 00 00 00 00 00 00 00 00 00 00 00 00 00 00 00 00 00 00 00 00 00 00
# rel: 00 00 00 00 00 00 00 00
# abs: 03 00 00 01 00 80 73 0E
# led: 00 00 00 00 00 00 00 00
# prp: 05 00 00 00 00 00 00 00
# absinfo: 0 0 13184 0 0 128
# absinfo: 1 0 8704 0 0 128
# absinfo: 24 0 255 0 0 0
# absinfo: 47 0 9 0 0 0
# absinfo: 48 0 13184 0 0 194
# absinfo: 49 0 8704 0 0 128
# absinfo: 52 0 1 0 0 0
# absinfo: 53 0 13184 0 0 128
# absinfo: 54 0 8704 0 0 128
# absinfo: 57 0 65535 0 0 0
# absinfo: 58 0 255 0 0 0
# absinfo: 59 0 1 0 0 0
E: 70181.590203 0003 002f 0
E: 70181.590203 0003 0039 -1
E: 70181.590203 0003 002f 1
E: 70181.590203 0003 0039 -1
E: 70181.590203 0003 002f 2
E: 70181.590203 0003 0039 -1
E: 70181.590203 0003 002f 3
E: 70181.590203 0003 0039 -1
E: 70181.590203 0003 002f 4
E: 70181.590203 0003 0039 -1
E: 70181.590203 0003 002f 5
E: 70181.590203 0003 0039 -1
E: 70181.590203 0003 002f 6
E: 70181.590203 0003 0039 -1
E: 70181.590203 0003 002f 7
E: 70181.590203 0003 0039 -1
E: 70181.590203 0003 002f 8
E: 70181.590203 0003 0039 -1
E: 70181.590203 0003 002f 9
E: 70181.590203 0003 0039 -1
E: 70181.590203 0003 002f 0
E: 70181.590203 0000 0000 0
E: 70181.593478 0003 0039 19852
E: 70181.593478 0003 0035 6592
E: 70181.593478 0003 0036 4352
E: 70181.593478 0003 003b 1
E: 70181.593478 0003 003a 0
E: 70181.593478 0003 0030 0
E: 70181.593478 0003 0031 0
E: 70181.593478 0001 014a 1
E: 70181.593478 0001 0145 1
E: 70181.593478 0003 0000 6592
E: 70181.593478 0003 0001 4352
E: 70181.593478 0000 0000 0
E: 70181.725034 0003 0035 6440
E: 70181.725034 0003 0036 3969
E: 70181.725034 0003 003b 0
E: 70181.725034 0003 003a 6
E: 70181.725034 0003 0030 387
E: 70181.725034 0003 0031 381
E: 70181.725034 0003 0000 6440
E: 70181.725034 0003 0001 3969
E: 70181.725034 0003 0018 6
E: 70181.725034 0000 0000 0
E: 70181.730192 0003 0035 6459
E: 70181.730192 0003 0036 3964
E: 70181.730192 0003 003a 8
E: 70181.730192 0003 0030 386
E: 70181.730192 0003 0031 386
E: 70181.730192 0003 0000 6459
E: 70181.730192 0003 0001 3964
E: 70181.730192 0003 0018 8
E: 70181.730192 0000 0000 0
E: 70181.739017 0003 0035 6458
E: 70181.739017 0003 0036 3963
E: 70181.739017 0003 0034 1
E: 70181.739017 0003 003a 10
E: 70181.739017 0003 0030 387
E: 70181.739017 0003 0031 385
E: 70181.739017 0003 0000 6458
E: 70181.739017 0003 0001 3963
E: 70181.739017 0003 0018 10
E: 70181.739017 0000 0000 0
E: 70181.744700 0003 0035 6456
E: 70181.744700 0003 0036 3962
E: 70181.744700 0003 0034 0
E: 70181.744700 0003 003a 11
E: 70181.744700 0003 0030 389
E: 70181.744700 0003 0031 389
E: 70181.744700 0003 0000 6456
E: 70181.744700 0003 0001 3962
E: 70181.744700 0003 0018 11
E: 70181.744700 0000 0000 0
E: 70181.750342 0003 0035 6462
E: 70181.750342 0003 0036 3964
E: 70181.750342 0003 003a 12
E: 70181.750342 0003 0030 392
E: 70181.750342 0003 0031 390
E: 70181.750342 0003 0000 6462
E: 70181.750342 0003 0001 3964
E: 70181.750342 0003 0018 12
E: 70181.750342 0000 0000 0
E: 70181.759513 0003 0036 3961
E: 70181.759513 0003 0030 391
E: 70181.759513 0003 0031 391
E: 70181.759513 0003 0001 3961
E: 70181.759513 0000 0000 0
E: 70181.765257 0003 0035 6465
E: 70181.765257 0003 0036 3958
E: 70181.765257 0003 0034 1
E: 70181.765257 0003 0031 388
E: 70181.765257 0003 0000 6465
E: 70181.765257 0003 0001 3958
E: 70181.765257 0000 0000 0
E: 70181.770608 0003 0035 6459
E: 70181.770608 0003 0036 3956
E: 70181.770608 0003 0030 392
E: 70181.770608 0003 0031 387
E: 70181.770608 0003 0000 6459
E: 70181.770608 0003 0001 3956
E: 70181.770608 0000 0000 0
E: 70181.780329 0003 0035 6463
E: 70181.780329 0003 0036 3947
E: 70181.780329 0003 003a 11
E: 70181.780329 0003 0030 387
E: 70181.780329 0003 0031 385
E: 70181.780329 0003 0000 6463
E: 70181.780329 0003 0001 3947
E: 70181.780329 0003 0018 11
E: 70181.780329 0000 0000 0
E: 70181.785979 0003 0035 6464
E: 70181.785979 0003 0036 3938
E: 70181.785979 0003 003a 10
E: 70181.785979 0003 0031 386
E: 70181.785979 0003 0000 6464
E: 70181.785979 0003 0001 3938
E: 70181.785979 0003 0018 10
E: 70181.785979 0000 0000 0
E: 70181.791478 0003 0035 6456
E: 70181.791478 0003 0036 3925
E: 70181.791478 0003 003a 9
E: 70181.791478 0003 0030 391
E: 70181.791478 0003 0031 387
E: 70181.791478 0003 0000 6456
E: 70181.791478 0003 0001 3925
E: 70181.791478 0003 0018 9
E: 70181.791478 0000 0000 0
E: 70181.796751 0003 0035 6446
E: 70181.796751 0003 0036 3915
E: 70181.796751 0003 003a 7
E: 70181.796751 0003 0030 401
E: 70181.796751 0003 0031 400
E: 70181.796751 0003 0000 6446
E: 70181.796751 0003 0001 3915
E: 70181.796751 0003 0018 7
E: 70181.796751 0000 0000 0
E: 70181.800555 0003 0035 6447
E: 70181.800555 0003 0000 6447
E: 70181.800555 0000 0000 0
E: 70181.805619 0003 0035 6420
E: 70181.805619 0003 0036 3905
E: 70181.805619 0003 0034 0
E: 70181.805619 0003 003a 5
E: 70181.805619 0003 0030 407
E: 70181.805619 0003 0031 404
E: 70181.805619 0003 0000 6420
E: 70181.805619 0003 0001 3905
E: 70181.805619 0003 0018 5
E: 70181.805619 0000 0000 0
E: 70181.807787 0003 0039 -1
E: 70181.807787 0001 014a 0
E: 70181.807787 0001 0145 0
E: 70181.807787 0003 0018 0
E: 70181.807787 0000 0000 0
E: 70181.811135 0003 0039 19853
E: 70181.811135 0003 0035 6592
E: 70181.811135 0003 0036 4352
E: 70181.811135 0003 003b 1
E: 70181.811135 0003 003a 0
E: 70181.811135 0003 0030 0
E: 70181.811135 0003 0031 0
E: 70181.811135 0001 014a 1
E: 70181.811135 0001 0145 1
E: 70181.811135 0003 0000 6592
E: 70181.811135 0003 0001 4352
E: 70181.811135 0000 0000 0
E: 70182.381131 0003 0039 -1
E: 70182.381131 0001 014a 0
E: 70182.381131 0001 0145 0
E: 70182.381131 0000 0000 0
E: 70182.868362 0003 0039 19854
E: 70182.868362 0001 014a 1
E: 70182.868362 0001 0145 1
E: 70182.868362 0000 0000 0
E: 70182.875452 0003 0035 6886
E: 70182.875452 0003 0036 3949
E: 70182.875452 0003 003b 0
E: 70182.875452 0003 0034 1
E: 70182.875452 0003 003a 6
E: 70182.875452 0003 0030 375
E: 70182.875452 0003 0031 366
E: 70182.875452 0003 0000 6886
E: 70182.875452 0003 0001 3949
E: 70182.875452 0003 0018 6
E: 70182.875452 0000 0000 0
E: 70182.880910 0003 0036 3951
E: 70182.880910 0003 003a 8
E: 70182.880910 0003 0030 379
E: 70182.880910 0003 0031 374
E: 70182.880910 0003 0001 3951
E: 70182.880910 0003 0018 8
E: 70182.880910 0000 0000 0
E: 70182.889833 0003 0035 6885
E: 70182.889833 0003 0036 3947
E: 70182.889833 0003 003a 10
E: 70182.889833 0003 0030 381
E: 70182.889833 0003 0000 6885
E: 70182.889833 0003 0001 3947
E: 70182.889833 0003 0018 10
E: 70182.889833 0000 0000 0
E: 70182.895404 0003 0035 6888
E: 70182.895404 0003 0036 3946
E: 70182.895404 0003 0030 383
E: 70182.895404 0003 0000 6888
E: 70182.895404 0003 0001 3946
E: 70182.895404 0000 0000 0
E: 70182.901019 0003 0036 3941
E: 70182.901019 0003 003a 11
E: 70182.901019 0003 0030 380
E: 70182.901019 0003 0031 375
E: 70182.901019 0003 0001 3941
E: 70182.901019 0003 0018 11
E: 70182.901019 0000 0000 0
E: 70182.910715 0003 0035 6891
E: 70182.910715 0003 0036 3938
E: 70182.910715 0003 0031 373
E: 70182.910715 0003 0000 6891
E: 70182.910715 0003 0001 3938
E: 70182.910715 0000 0000 0
E: 70182.916111 0003 0035 6892
E: 70182.916111 0003 0036 3931
E: 70182.916111 0003 0030 379
E: 70182.916111 0003 0031 371
E: 70182.916111 0003 0000 6892
E: 70182.916111 0003 0001 3931
E: 70182.916111 0000 0000 0
E: 70182.921660 0003 0035 6896
E: 70182.921660 0003 0036 3921
E: 70182.921660 0003 003a 10
E: 70182.921660 0003 0030 376
E: 70182.921660 0003 0031 370
E: 70182.921660 0003 0000 6896
E: 70182.921660 0003 0001 3921
E: 70182.921660 0003 0018 10
E: 70182.921660 0000 0000 0
E: 70182.927085 0003 0035 6901
E: 70182.927085 0003 0036 3915
E: 70182.927085 0003 0030 371
E: 70182.927085 0003 0031 366
E: 70182.927085 0003 0000 6901
E: 70182.927085 0003 0001 3915
E: 70182.927085 0000 0000 0
E: 70182.936684 0003 0035 6906
E: 70182.936684 0003 0036 3905
E: 70182.936684 0003 003a 9
E: 70182.936684 0003 0030 369
E: 70182.936684 0003 0031 367
E: 70182.936684 0003 0000 6906
E: 70182.936684 0003 0001 3905
E: 70182.936684 0003 0018 9
E: 70182.936684 0000 0000 0
E: 70182.942410 0003 0035 6907
E: 70182.942410 0003 0036 3893
E: 70182.942410 0003 003a 8
E: 70182.942410 0003 0030 371
E: 70182.942410 0003 0031 365
E: 70182.942410 0003 0000 6907
E: 70182.942410 0003 0001 3893
E: 70182.942410 0003 0018 8
E: 70182.942410 0000 0000 0
E: 70182.947464 0003 0035 6906
E: 70182.947464 0003 0036 3880
E: 70182.947464 0003 003a 6
E: 70182.947464 0003 0030 380
E: 70182.947464 0003 0031 367
E: 70182.947464 0003 0000 6906
E: 70182.947464 0003 0001 3880
E: 70182.947464 0003 0018 6
E: 70182.947464 0000 0000 0
E: 70182.954650 0003 0039 -1
E: 70182.954650 0001 014a 0
E: 70182.954650 0001 0145 0
E: 70182.954650 0003 0018 0
E: 70182.954650 0000 0000 0
E: 70182.956730 0003 0039 19855
E: 70182.956730 0003 0035 6592
E: 70182.956730 0003 0036 4352
E: 70182.956730 0003 003b 1
E: 70182.956730 0003 0034 0
E: 70182.956730 0003 003a 0
E: 70182.956730 0003 0030 0
E: 70182.956730 0003 0031 0
E: 70182.956730 0001 014a 1
E: 70182.956730 0001 0145 1
E: 70182.956730 0003 0000 6592
E: 70182.956730 0003 0001 4352
E: 70182.956730 0000 0000 0
E: 70183.531249 0003 0039 -1
E: 70183.531249 0001 014a 0
E: 70183.531249 0001 0145 0
E: 70183.531249 0000 0000 0
E: 70183.951109 0003 0039 19856
E: 70183.951109 0001 014a 1
E: 70183.951109 0001 0145 1
E: 70183.951109 0000 0000 0
E: 70183.958246 0003 0035 6904
E: 70183.958246 0003 0036 3844
E: 70183.958246 0003 003b 0
E: 70183.958246 0003 0034 1
E: 70183.958246 0003 003a 5
E: 70183.958246 0003 0030 370
E: 70183.958246 0003 0031 366
E: 70183.958246 0003 0000 6904
E: 70183.958246 0003 0001 3844
E: 70183.958246 0003 0018 5
E: 70183.958246 0000 0000 0
E: 70183.963562 0003 0035 6906
E: 70183.963562 0003 0036 3847
E: 70183.963562 0003 003a 7
E: 70183.963562 0003 0030 376
E: 70183.963562 0003 0031 374
E: 70183.963562 0003 0000 6906
E: 70183.963562 0003 0001 3847
E: 70183.963562 0003 0018 7
E: 70183.963562 0000 0000 0
E: 70183.972547 0003 0035 6905
E: 70183.972547 0003 0036 3842
E: 70183.972547 0003 003a 8
E: 70183.972547 0003 0031 371
E: 70183.972547 0003 0000 6905
E: 70183.972547 0003 0001 3842
E: 70183.972547 0003 0018 8
E: 70183.972547 0000 0000 0
E: 70183.977978 0003 0035 6906
E: 70183.977978 0003 0036 3840
E: 70183.977978 0003 003a 9
E: 70183.977978 0003 0030 378
E: 70183.977978 0003 0031 369
E: 70183.977978 0003 0000 6906
E: 70183.977978 0003 0001 3840
E: 70183.977978 0003 0018 9
E: 70183.977978 0000 0000 0
E: 70183.983330 0003 0035 6905
E: 70183.983330 0003 0036 3839
E: 70183.983330 0003 0030 373
E: 70183.983330 0003 0031 370
E: 70183.983330 0003 0000 6905
E: 70183.983330 0003 0001 3839
E: 70183.983330 0000 0000 0
E: 70183.992257 0003 0035 6908
E: 70183.992257 0003 0036 3833
E: 70183.992257 0003 0030 374
E: 70183.992257 0003 0000 6908
E: 70183.992257 0003 0001 3833
E: 70183.992257 0000 0000 0
E: 70183.997738 0003 0035 6914
E: 70183.997738 0003 0036 3824
E: 70183.997738 0003 0030 376
E: 70183.997738 0003 0031 372
E: 70183.997738 0003 0000 6914
E: 70183.997738 0003 0001 3824
E: 70183.997738 0000 0000 0
E: 70184.003337 0003 0035 6922
E: 70184.003337 0003 0036 3813
E: 70184.003337 0003 003a 8
E: 70184.003337 0003 0030 378
E: 70184.003337 0003 0031 371
E: 70184.003337 0003 0000 6922
E: 70184.003337 0003 0001 3813
E: 70184.003337 0003 0018 8
E: 70184.003337 0000 0000 0
E: 70184.012911 0003 0035 6923
E: 70184.012911 0003 0036 3804
E: 70184.012911 0003 0031 375
E: 70184.012911 0003 0000 6923
E: 70184.012911 0003 0001 3804
E: 70184.012911 0000 0000 0
E: 70184.018055 0003 0036 3798
E: 70184.018055 0003 003a 7
E: 70184.018055 0003 0030 385
E: 70184.018055 0003 0031 376
E: 70184.018055 0003 0001 3798
E: 70184.018055 0003 0018 7
E: 70184.018055 0000 0000 0
E: 70184.023152 0003 0035 6919
E: 70184.023152 0003 0036 3801
E: 70184.023152 0003 0034 0
E: 70184.023152 0003 003a 6
E: 70184.023152 0003 0030 387
E: 70184.023152 0003 0031 386
E: 70184.023152 0003 0000 6919
E: 70184.023152 0003 0001 3801
E: 70184.023152 0003 0018 6
E: 70184.023152 0000 0000 0
E: 70184.029824 0003 0039 -1
E: 70184.029824 0001 014a 0
E: 70184.029824 0001 0145 0
E: 70184.029824 0003 0018 0
E: 70184.029824 0000 0000 0
E: 70184.032085 0003 0039 19857
E: 70184.032085 0003 0035 6592
E: 70184.032085 0003 0036 4352
E: 70184.032085 0003 003b 1
E: 70184.032085 0003 003a 0
E: 70184.032085 0003 0030 0
E: 70184.032085 0003 0031 0
E: 70184.032085 0001 014a 1
E: 70184.032085 0001 0145 1
E: 70184.032085 0003 0000 6592
E: 70184.032085 0003 0001 4352
E: 70184.032085 0000 0000 0
E: 70184.607274 0003 0039 -1
E: 70184.607274 0001 014a 0
E: 70184.607274 0001 0145 0
E: 70184.607274 0000 0000 0
E: 70184.958466 0003 0039 19858
E: 70184.958466 0001 014a 1
E: 70184.958466 0001 0145 1
E: 70184.958466 0000 0000 0
E: 70184.985969 0003 0035 6835
E: 70184.985969 0003 0036 3698
E: 70184.985969 0003 003b 0
E: 70184.985969 0003 0034 1
E: 70184.985969 0003 003a 5
E: 70184.985969 0003 0030 379
E: 70184.985969 0003 0031 369
E: 70184.985969 0003 0000 6835
E: 70184.985969 0003 0001 3698
E: 70184.985969 0003 0018 5
E: 70184.985969 0000 0000 0
E: 70184.994793 0003 0035 6833
E: 70184.994793 0003 0036 3703
E: 70184.994793 0003 003a 7
E: 70184.994793 0003 0030 376
E: 70184.994793 0003 0031 364
E: 70184.994793 0003 0000 6833
E: 70184.994793 0003 0001 3703
E: 70184.994793 0003 0018 7
E: 70184.994793 0000 0000 0
E: 70185.000284 0003 0035 6834
E: 70185.000284 0003 0036 3700
E: 70185.000284 0003 003a 8
E: 70185.000284 0003 0030 375
E: 70185.000284 0003 0000 6834
E: 70185.000284 0003 0001 3700
E: 70185.000284 0003 0018 8
E: 70185.000284 0000 0000 0
E: 70185.005826 0003 0035 6830
E: 70185.005826 0003 0036 3698
E: 70185.005826 0003 0030 367
E: 70185.005826 0003 0031 358
E: 70185.005826 0003 0000 6830
E: 70185.005826 0003 0001 3698
E: 70185.005826 0000 0000 0
E: 70185.015072 0003 0035 6835
E: 70185.015072 0003 0036 3692
E: 70185.015072 0003 003a 9
E: 70185.015072 0003 0030 372
E: 70185.015072 0003 0031 363
E: 70185.015072 0003 0000 6835
E: 70185.015072 0003 0001 3692
E: 70185.015072 0003 0018 9
E: 70185.015072 0000 0000 0
E: 70185.020706 0003 0035 6840
E: 70185.020706 0003 0036 3687
E: 70185.020706 0003 0030 369
E: 70185.020706 0003 0031 360
E: 70185.020706 0003 0000 6840
E: 70185.020706 0003 0001 3687
E: 70185.020706 0000 0000 0
E: 70185.025892 0003 0035 6848
E: 70185.025892 0003 0036 3678
E: 70185.025892 0003 0000 6848
E: 70185.025892 0003 0001 3678
E: 70185.025892 0000 0000 0
E: 70185.031487 0003 0035 6847
E: 70185.031487 0003 0000 6847
E: 70185.031487 0000 0000 0
E: 70185.035726 0003 0035 6854
E: 70185.035726 0003 0036 3666
E: 70185.035726 0003 003a 8
E: 70185.035726 0003 0030 367
E: 70185.035726 0003 0031 352
E: 70185.035726 0003 0000 6854
E: 70185.035726 0003 0001 3666
E: 70185.035726 0003 0018 8
E: 70185.035726 0000 0000 0
E: 70185.041133 0003 0036 3653
E: 70185.041133 0003 0030 369
E: 70185.041133 0003 0031 358
E: 70185.041133 0003 0001 3653
E: 70185.041133 0000 0000 0
E: 70185.046562 0003 0035 6865
E: 70185.046562 0003 0036 3645
E: 70185.046562 0003 003a 7
E: 70185.046562 0003 0030 368
E: 70185.046562 0003 0031 362
E: 70185.046562 0003 0000 6865
E: 70185.046562 0003 0001 3645
E: 70185.046562 0003 0018 7
E: 70185.046562 0000 0000 0
E: 70185.051660 0003 0035 6858
E: 70185.051660 0003 0036 3636
E: 70185.051660 0003 0034 0
E: 70185.051660 0003 003a 6
E: 70185.051660 0003 0031 368
E: 70185.051660 0003 0000 6858
E: 70185.051660 0003 0001 3636
E: 70185.051660 0003 0018 6
E: 70185.051660 0000 0000 0
E: 70185.060748 0003 0035 6849
E: 70185.060748 0003 0036 3627
E: 70185.060748 0003 0030 372
E: 70185.060748 0003 0031 372
E: 70185.060748 0003 0000 6849
E: 70185.060748 0003 0001 3627
E: 70185.060748 0000 0000 0
E: 70185.065560 0003 0035 6839
E: 70185.065560 0003 0036 3626
E: 70185.065560 0003 0034 1
E: 70185.065560 0003 0030 378
E: 70185.065560 0003 0031 369
E: 70185.065560 0003 0000 6839
E: 70185.065560 0003 0001 3626
E: 70185.065560 0000 0000 0
E: 70185.074068 0003 0035 6833
E: 70185.074068 0003 0036 3627
E: 70185.074068 0003 003a 5
E: 70185.074068 0003 0030 383
E: 70185.074068 0003 0031 368
E: 70185.074068 0003 0000 6833
E: 70185.074068 0003 0001 3627
E: 70185.074068 0003 0018 5
E: 70185.074068 0000 0000 0
E: 70185.079067 0003 0035 6831
E: 70185.079067 0003 0036 3617
E: 70185.079067 0003 0030 392
E: 70185.079067 0003 0031 377
E: 70185.079067 0003 0000 6831
E: 70185.079067 0003 0001 3617
E: 70185.079067 0000 0000 0
E: 70185.081162 0003 0039 -1
E: 70185.081162 0001 014a 0
E: 70185.081162 0001 0145 0
E: 70185.081162 0003 0018 0
E: 70185.081162 0000 0000 0
E: 70185.084451 0003 0039 19859
E: 70185.084451 0003 0035 6592
E: 70185.084451 0003 0036 4352
E: 70185.084451 0003 003b 1
E: 70185.084451 0003 0034 0
E: 70185.084451 0003 003a 0
E: 70185.084451 0003 0030 0
E: 70185.084451 0003 0031 0
E: 70185.084451 0001 014a 1
E: 70185.084451 0001 0145 1
E: 70185.084451 0003 0000 6592
E: 70185.084451 0003 0001 4352
E: 70185.084451 0000 0000 0
E: 70185.656185 0003 0039 -1
E: 70185.656185 0001 014a 0
E: 70185.656185 0001 0145 0
E: 70185.656185 0000 0000 0
E: 70185.772047 0003 0039 19860
E: 70185.772047 0001 014a 1
E: 70185.772047 0001 0145 1
E: 70185.772047 0000 0000 0
E: 70185.792243 0003 0035 6819
E: 70185.792243 0003 0036 3693
E: 70185.792243 0003 003b 0
E: 70185.792243 0003 0034 1
E: 70185.792243 0003 003a 5
E: 70185.792243 0003 0030 378
E: 70185.792243 0003 0031 362
E: 70185.792243 0003 0000 6819
E: 70185.792243 0003 0001 3693
E: 70185.792243 0003 0018 5
E: 70185.792243 0000 0000 0
E: 70185.801578 0003 0036 3702
E: 70185.801578 0003 003a 7
E: 70185.801578 0003 0030 375
E: 70185.801578 0003 0031 358
E: 70185.801578 0003 0001 3702
E: 70185.801578 0003 0018 7
E: 70185.801578 0000 0000 0
E: 70185.806963 0003 0035 6821
E: 70185.806963 0003 0036 3701
E: 70185.806963 0003 003a 9
E: 70185.806963 0003 0030 378
E: 70185.806963 0003 0031 361
E: 70185.806963 0003 0000 6821
E: 70185.806963 0003 0001 3701
E: 70185.806963 0003 0018 9
E: 70185.806963 0000 0000 0
E: 70185.812538 0003 0035 6818
E: 70185.812538 0003 0036 3706
E: 70185.812538 0003 003a 10
E: 70185.812538 0003 0030 379
E: 70185.812538 0003 0031 364
E: 70185.812538 0003 0000 6818
E: 70185.812538 0003 0001 3706
E: 70185.812538 0003 0018 10
E: 70185.812538 0000 0000 0
E: 70185.816242 0003 0035 6817
E: 70185.816242 0003 0000 6817
E: 70185.816242 0000 0000 0
E: 70185.821593 0003 0035 6816
E: 70185.821593 0003 0036 3708
E: 70185.821593 0003 003a 11
E: 70185.821593 0003 0030 381
E: 70185.821593 0003 0031 361
E: 70185.821593 0003 0000 6816
E: 70185.821593 0003 0001 3708
E: 70185.821593 0003 0018 11
E: 70185.821593 0000 0000 0
E: 70185.827028 0003 0035 6814
E: 70185.827028 0003 0036 3709
E: 70185.827028 0003 0030 383
E: 70185.827028 0003 0031 360
E: 70185.827028 0003 0000 6814
E: 70185.827028 0003 0001 3709
E: 70185.827028 0000 0000 0
E: 70185.832432 0003 0035 6815
E: 70185.832432 0003 0036 3707
E: 70185.832432 0003 003a 12
E: 70185.832432 0003 0030 387
E: 70185.832432 0003 0031 363
E: 70185.832432 0003 0000 6815
E: 70185.832432 0003 0001 3707
E: 70185.832432 0003 0018 12
E: 70185.832432 0000 0000 0
E: 70185.841671 0003 0035 6812
E: 70185.841671 0003 0036 3709
E: 70185.841671 0003 0030 386
E: 70185.841671 0003 0000 6812
E: 70185.841671 0003 0001 3709
E: 70185.841671 0000 0000 0
E: 70185.846785 0003 0035 6817
E: 70185.846785 0003 0036 3705
E: 70185.846785 0003 0000 6817
E: 70185.846785 0003 0001 3705
E: 70185.846785 0000 0000 0
E: 70185.852063 0003 0035 6820
E: 70185.852063 0003 0036 3701
E: 70185.852063 0003 0031 362
E: 70185.852063 0003 0000 6820
E: 70185.852063 0003 0001 3701
E: 70185.852063 0000 0000 0
E: 70185.855959 0003 0031 363
E: 70185.855959 0000 0000 0
E: 70185.861439 0003 0035 6827
E: 70185.861439 0003 0036 3688
E: 70185.861439 0003 003a 11
E: 70185.861439 0003 0030 382
E: 70185.861439 0003 0031 362
E: 70185.861439 0003 0000 6827
E: 70185.861439 0003 0001 3688
E: 70185.861439 0003 0018 11
E: 70185.861439 0000 0000 0
E: 70185.866993 0003 0035 6831
E: 70185.866993 0003 0036 3669
E: 70185.866993 0003 0030 381
E: 70185.866993 0003 0000 6831
E: 70185.866993 0003 0001 3669
E: 70185.866993 0000 0000 0
E: 70185.872668 0003 0035 6830
E: 70185.872668 0003 0036 3654
E: 70185.872668 0003 003a 9
E: 70185.872668 0003 0031 364
E: 70185.872668 0003 0000 6830
E: 70185.872668 0003 0001 3654
E: 70185.872668 0003 0018 9
E: 70185.872668 0000 0000 0
E: 70185.878175 0003 0035 6826
E: 70185.878175 0003 0036 3640
E: 70185.878175 0003 003a 7
E: 70185.878175 0003 0030 388
E: 70185.878175 0003 0031 375
E: 70185.878175 0003 0000 6826
E: 70185.878175 0003 0001 3640
E: 70185.878175 0003 0018 7
E: 70185.878175 0000 0000 0
E: 70185.885470 0003 0039 -1
E: 70185.885470 0001 014a 0
E: 70185.885470 0001 0145 0
E: 70185.885470 0003 0018 0
E: 70185.885470 0000 0000 0
E: 70185.887867 0003 0039 19861
E: 70185.887867 0003 0035 6592
E: 70185.887867 0003 0036 4352
E: 70185.887867 0003 003b 1
E: 70185.887867 0003 0034 0
E: 70185.887867 0003 003a 0
E: 70185.887867 0003 0030 0
E: 70185.887867 0003 0031 0
E: 70185.887867 0001 014a 1
E: 70185.887867 0001 0145 1
E: 70185.887867 0003 0000 6592
E: 70185.887867 0003 0001 4352
E: 70185.887867 0000 0000 0
E: 70186.462237 0003 0039 -1
E: 70186.462237 0001 014a 0
E: 70186.462237 0001 0145 0
E: 70186.462237 0000 0000 0
E: 70186.511933 0003 0039 19862
E: 70186.511933 0001 014a 1
E: 70186.511933 0001 0145 1
E: 70186.511933 0000 0000 0
E: 70186.540091 0003 0035 6783
E: 70186.540091 0003 0036 3696
E: 70186.540091 0003 003b 0
E: 70186.540091 0003 0034 1
E: 70186.540091 0003 003a 7
E: 70186.540091 0003 0030 379
E: 70186.540091 0003 0031 358
E: 70186.540091 0003 0000 6783
E: 70186.540091 0003 0001 3696
E: 70186.540091 0003 0018 7
E: 70186.540091 0000 0000 0
E: 70186.545752 0003 0035 6786
E: 70186.545752 0003 0036 3698
E: 70186.545752 0003 003a 8
E: 70186.545752 0003 0030 380
E: 70186.545752 0003 0031 360
E: 70186.545752 0003 0000 6786
E: 70186.545752 0003 0001 3698
E: 70186.545752 0003 0018 8
E: 70186.545752 0000 0000 0
E: 70186.554698 0003 0035 6774
E: 70186.554698 0003 003a 10
E: 70186.554698 0003 0030 381
E: 70186.554698 0003 0000 6774
E: 70186.554698 0003 0018 10
E: 70186.554698 0000 0000 0
E: 70186.560239 0003 0035 6773
E: 70186.560239 0003 0036 3699
E: 70186.560239 0003 003a 11
E: 70186.560239 0003 0030 384
E: 70186.560239 0003 0000 6773
E: 70186.560239 0003 0001 3699
E: 70186.560239 0003 0018 11
E: 70186.560239 0000 0000 0
E: 70186.565818 0003 0035 6769
E: 70186.565818 0003 0036 3700
E: 70186.565818 0003 003a 12
E: 70186.565818 0003 0030 389
E: 70186.565818 0003 0031 364
E: 70186.565818 0003 0000 6769
E: 70186.565818 0003 0001 3700
E: 70186.565818 0003 0018 12
E: 70186.565818 0000 0000 0
E: 70186.571179 0003 0035 6765
E: 70186.571179 0003 0036 3701
E: 70186.571179 0003 0030 390
E: 70186.571179 0003 0031 362
E: 70186.571179 0003 0000 6765
E: 70186.571179 0003 0001 3701
E: 70186.571179 0000 0000 0
E: 70186.574941 0003 0035 6764
E: 70186.574941 0003 0030 389
E: 70186.574941 0003 0000 6764
E: 70186.574941 0000 0000 0
E: 70186.580425 0003 0035 6766
E: 70186.580425 0003 0036 3700
E: 70186.580425 0003 0030 390
E: 70186.580425 0003 0031 363
E: 70186.580425 0003 0000 6766
E: 70186.580425 0003 0001 3700
E: 70186.580425 0000 0000 0
E: 70186.585872 0003 0035 6767
E: 70186.585872 0003 0030 389
E: 70186.585872 0003 0031 364
E: 70186.585872 0003 0000 6767
E: 70186.585872 0000 0000 0
E: 70186.590891 0003 0035 6770
E: 70186.590891 0003 0036 3697
E: 70186.590891 0003 003a 13
E: 70186.590891 0003 0030 391
E: 70186.590891 0003 0031 362
E: 70186.590891 0003 0000 6770
E: 70186.590891 0003 0001 3697
E: 70186.590891 0003 0018 13
E: 70186.590891 0000 0000 0
E: 70186.600526 0003 0035 6779
E: 70186.600526 0003 0036 3691
E: 70186.600526 0003 003a 12
E: 70186.600526 0003 0030 390
E: 70186.600526 0003 0031 365
E: 70186.600526 0003 0000 6779
E: 70186.600526 0003 0001 3691
E: 70186.600526 0003 0018 12
E: 70186.600526 0000 0000 0
E: 70186.605728 0003 0035 6791
E: 70186.605728 0003 0036 3681
E: 70186.605728 0003 0030 386
E: 70186.605728 0003 0031 363
E: 70186.605728 0003 0000 6791
E: 70186.605728 0003 0001 3681
E: 70186.605728 0000 0000 0
E: 70186.611588 0003 0035 6798
E: 70186.611588 0003 0036 3663
E: 70186.611588 0003 003a 11
E: 70186.611588 0003 0030 381
E: 70186.611588 0003 0000 6798
E: 70186.611588 0003 0001 3663
E: 70186.611588 0003 0018 11
E: 70186.611588 0000 0000 0
E: 70186.621301 0003 0035 6804
E: 70186.621301 0003 0036 3649
E: 70186.621301 0003 003a 9
E: 70186.621301 0003 0030 382
E: 70186.621301 0003 0031 362
E: 70186.621301 0003 0000 6804
E: 70186.621301 0003 0001 3649
E: 70186.621301 0003 0018 9
E: 70186.621301 0000 0000 0
E: 70186.627171 0003 0035 6805
E: 70186.627171 0003 0036 3638
E: 70186.627171 0003 003a 8
E: 70186.627171 0003 0030 387
E: 70186.627171 0003 0031 372
E: 70186.627171 0003 0000 6805
E: 70186.627171 0003 0001 3638
E: 70186.627171 0003 0018 8
E: 70186.627171 0000 0000 0
E: 70186.632185 0003 0035 6797
E: 70186.632185 0003 0036 3628
E: 70186.632185 0003 003a 6
E: 70186.632185 0003 0030 400
E: 70186.632185 0003 0031 382
E: 70186.632185 0003 0000 6797
E: 70186.632185 0003 0001 3628
E: 70186.632185 0003 0018 6
E: 70186.632185 0000 0000 0
E: 70186.634214 0003 0039 -1
E: 70186.634214 0001 014a 0
E: 70186.634214 0001 0145 0
E: 70186.634214 0003 0018 0
E: 70186.634214 0000 0000 0
E: 70186.634714 0003 002f 0
E: 70186.634714 0003 0039 -1
E: 70186.634714 0003 002f 1
E: 70186.634714 0003 0039 -1
E: 70186.634714 0003 002f 2
E: 70186.634714 0003 0039 -1
E: 70186.634714 0003 002f 3
E: 70186.634714 0003 0039 -1
E: 70186.634714 0003 002f 4
E: 70186.634714 0003 0039 -1
E: 70186.634714 0003 002f 5
E: 70186.634714 0003 0039 -1
E: 70186.634714 0003 002f 6
E: 70186.634714 0003 0039 -1
E: 70186.634714 0003 002f 7
E: 70186.634714 0003 0039 -1
E: 70186.634714 0003 002f 8
E: 70186.634714 0003 0039 -1
E: 70186.634714 0003 002f 9
E: 70186.634714 0003 0039 -1
